# Blender v2.79 (sub 0) OBJ File: ''
# www.blender.org
v 3.542875 -2.160064 0.001406
v 3.542875 -2.164395 -0.042564
v 3.542875 -2.177220 -0.084844
v 3.542875 -2.198048 -0.123809
v 3.542875 -2.226077 -0.157963
v 3.542875 -2.260231 -0.185992
v 3.542875 -2.299196 -0.206819
v 3.542875 -2.341476 -0.219645
v 3.542875 -2.385446 -0.223976
v 3.542875 -2.429416 -0.219645
v 3.542875 -2.471696 -0.206819
v 3.542875 -2.510661 -0.185992
v 3.542875 -2.544815 -0.157963
v 3.542875 -2.572844 -0.123809
v 3.542875 -2.593672 -0.084844
v 3.542875 -2.606497 -0.042564
v 3.542875 -2.610828 0.001406
v 3.542875 -2.606497 0.045376
v 3.542875 -2.593672 0.087656
v 3.542875 -2.572844 0.126622
v 3.542875 -2.544815 0.160775
v 3.542875 -2.510661 0.188804
v 3.542875 -2.471696 0.209632
v 3.993639 -2.385446 0.001406
v 3.542875 -2.429416 0.222457
v 3.542875 -2.385446 0.226788
v 3.542875 -2.341476 0.222457
v 3.542875 -2.299196 0.209632
v 3.542875 -2.260230 0.188804
v 3.542875 -2.226077 0.160775
v 3.542875 -2.198048 0.126621
v 3.542875 -2.177220 0.087656
v 3.542875 -2.164395 0.045376
v 0.072371 -2.285446 0.001406
v 3.563996 -2.285446 0.001406
v 0.072371 -2.287367 -0.018103
v 3.563996 -2.287368 -0.018103
v 0.072371 -2.293058 -0.036862
v 3.563996 -2.293058 -0.036862
v 0.072371 -2.302299 -0.054151
v 3.563996 -2.302299 -0.054151
v 0.072371 -2.314735 -0.069304
v 3.563996 -2.314735 -0.069304
v 0.072371 -2.329889 -0.081741
v 3.563996 -2.329889 -0.081741
v 0.072371 -2.347178 -0.090982
v 3.563996 -2.347178 -0.090982
v 0.072371 -2.365937 -0.096672
v 3.563996 -2.365937 -0.096672
v 0.072371 -2.385446 -0.098594
v 3.563996 -2.385446 -0.098594
v 0.072371 -2.404955 -0.096672
v 3.563996 -2.404955 -0.096672
v 0.072371 -2.423714 -0.090982
v 3.563996 -2.423714 -0.090982
v 0.072371 -2.441003 -0.081741
v 3.563996 -2.441003 -0.081741
v 0.072371 -2.456156 -0.069304
v 3.563996 -2.456157 -0.069304
v 0.072371 -2.468593 -0.054151
v 3.563996 -2.468593 -0.054151
v 0.072371 -2.477834 -0.036862
v 3.563996 -2.477834 -0.036862
v 0.072371 -2.483525 -0.018103
v 3.563996 -2.483525 -0.018103
v 0.072371 -2.485446 0.001406
v 3.563996 -2.485446 0.001406
v 0.072371 -2.483525 0.020915
v 3.563996 -2.483525 0.020915
v 0.072371 -2.477834 0.039675
v 3.563996 -2.477834 0.039675
v 0.072371 -2.468593 0.056963
v 3.563996 -2.468593 0.056963
v 0.072371 -2.456156 0.072117
v 3.563996 -2.456157 0.072117
v 0.072371 -2.441003 0.084553
v 3.563996 -2.441003 0.084553
v 0.072371 -2.423714 0.093794
v 3.563996 -2.423714 0.093794
v 0.072371 -2.404955 0.099485
v 3.563996 -2.404955 0.099485
v 0.072371 -2.385446 0.101406
v 3.563996 -2.385446 0.101406
v 0.072371 -2.365937 0.099485
v 3.563996 -2.365937 0.099485
v 0.072371 -2.347178 0.093794
v 3.563996 -2.347178 0.093794
v 0.072371 -2.329889 0.084553
v 3.563996 -2.329889 0.084553
v 0.072371 -2.314735 0.072117
v 3.563996 -2.314735 0.072117
v 0.072371 -2.302299 0.056963
v 3.563996 -2.302299 0.056963
v 0.072371 -2.293058 0.039675
v 3.563996 -2.293058 0.039674
v 0.072371 -2.287367 0.020915
v 3.563996 -2.287368 0.020915
v 0.000000 -2.160064 3.484719
v 0.043970 -2.164395 3.484719
v 0.086250 -2.177220 3.484719
v 0.125216 -2.198048 3.484719
v 0.159369 -2.226077 3.484719
v 0.187398 -2.260231 3.484719
v 0.208225 -2.299196 3.484719
v 0.221051 -2.341476 3.484719
v 0.225382 -2.385446 3.484719
v 0.221051 -2.429416 3.484719
v 0.208225 -2.471696 3.484719
v 0.187398 -2.510661 3.484719
v 0.159369 -2.544815 3.484719
v 0.125216 -2.572844 3.484719
v 0.086250 -2.593672 3.484719
v 0.043970 -2.606497 3.484719
v 0.000000 -2.610828 3.484719
v -0.043970 -2.606497 3.484719
v -0.086250 -2.593672 3.484719
v -0.125216 -2.572844 3.484719
v -0.159369 -2.544815 3.484719
v -0.187398 -2.510661 3.484719
v -0.208226 -2.471696 3.484719
v 0.000000 -2.385446 3.935483
v -0.221051 -2.429415 3.484719
v -0.225382 -2.385446 3.484719
v -0.221051 -2.341476 3.484719
v -0.208226 -2.299196 3.484719
v -0.187398 -2.260230 3.484719
v -0.159369 -2.226077 3.484719
v -0.125215 -2.198048 3.484719
v -0.086250 -2.177220 3.484719
v -0.043970 -2.164395 3.484719
v -0.000000 -2.285446 0.014214
v 0.000000 -2.285446 3.505840
v 0.019509 -2.287367 0.014214
v 0.019509 -2.287367 3.505840
v 0.038268 -2.293058 0.014214
v 0.038268 -2.293058 3.505840
v 0.055557 -2.302299 0.014214
v 0.055557 -2.302299 3.505840
v 0.070710 -2.314735 0.014214
v 0.070711 -2.314735 3.505840
v 0.083147 -2.329889 0.014214
v 0.083147 -2.329889 3.505840
v 0.092388 -2.347178 0.014214
v 0.092388 -2.347178 3.505840
v 0.098078 -2.365937 0.014214
v 0.098078 -2.365937 3.505840
v 0.100000 -2.385446 0.014214
v 0.100000 -2.385446 3.505840
v 0.098078 -2.404955 0.014214
v 0.098078 -2.404955 3.505840
v 0.092388 -2.423714 0.014214
v 0.092388 -2.423714 3.505840
v 0.083147 -2.441003 0.014214
v 0.083147 -2.441003 3.505840
v 0.070710 -2.456156 0.014214
v 0.070711 -2.456156 3.505840
v 0.055557 -2.468593 0.014214
v 0.055557 -2.468593 3.505840
v 0.038268 -2.477834 0.014214
v 0.038268 -2.477834 3.505840
v 0.019509 -2.483524 0.014214
v 0.019509 -2.483525 3.505840
v -0.000000 -2.485446 0.014214
v 0.000000 -2.485446 3.505840
v -0.019509 -2.483524 0.014214
v -0.019509 -2.483525 3.505840
v -0.038268 -2.477834 0.014214
v -0.038269 -2.477834 3.505840
v -0.055557 -2.468593 0.014214
v -0.055557 -2.468593 3.505840
v -0.070711 -2.456156 0.014214
v -0.070711 -2.456156 3.505840
v -0.083147 -2.441003 0.014214
v -0.083147 -2.441003 3.505840
v -0.092388 -2.423714 0.014214
v -0.092388 -2.423714 3.505840
v -0.098079 -2.404955 0.014214
v -0.098078 -2.404955 3.505840
v -0.100000 -2.385446 0.014214
v -0.100000 -2.385446 3.505840
v -0.098079 -2.365937 0.014214
v -0.098078 -2.365937 3.505840
v -0.092388 -2.347177 0.014214
v -0.092388 -2.347178 3.505840
v -0.083147 -2.329889 0.014214
v -0.083147 -2.329889 3.505840
v -0.070711 -2.314735 0.014214
v -0.070711 -2.314735 3.505840
v -0.055557 -2.302299 0.014214
v -0.055557 -2.302299 3.505840
v -0.038268 -2.293058 0.014214
v -0.038268 -2.293058 3.505840
v -0.019509 -2.287367 0.014214
v -0.019509 -2.287367 3.505840
v 0.000000 0.945986 -0.225382
v 0.043970 0.945986 -0.221051
v 0.086250 0.945986 -0.208226
v 0.125216 0.945986 -0.187398
v 0.159369 0.945986 -0.159369
v 0.187398 0.945986 -0.125215
v 0.208225 0.945986 -0.086250
v 0.221051 0.945986 -0.043970
v 0.225382 0.945986 -0.000000
v 0.221051 0.945986 0.043970
v 0.208225 0.945986 0.086250
v 0.187398 0.945986 0.125215
v 0.159369 0.945986 0.159369
v 0.125216 0.945986 0.187398
v 0.086250 0.945986 0.208226
v 0.043970 0.945986 0.221051
v 0.000000 0.945986 0.225382
v -0.043970 0.945986 0.221051
v -0.086250 0.945986 0.208226
v -0.125216 0.945986 0.187398
v -0.159369 0.945986 0.159369
v -0.187398 0.945986 0.125215
v -0.208226 0.945986 0.086250
v 0.000000 1.396750 -0.000000
v -0.221051 0.945986 0.043970
v -0.225382 0.945986 -0.000000
v -0.221051 0.945986 -0.043970
v -0.208226 0.945986 -0.086250
v -0.187398 0.945986 -0.125216
v -0.159369 0.945986 -0.159369
v -0.125215 0.945986 -0.187398
v -0.086250 0.945986 -0.208226
v -0.043970 0.945986 -0.221051
v -0.000000 -2.524518 -0.100000
v 0.000000 0.967107 -0.100000
v 0.019509 -2.524518 -0.098079
v 0.019509 0.967107 -0.098079
v 0.038268 -2.524518 -0.092388
v 0.038268 0.967107 -0.092388
v 0.055557 -2.524518 -0.083147
v 0.055557 0.967107 -0.083147
v 0.070710 -2.524518 -0.070711
v 0.070711 0.967107 -0.070711
v 0.083147 -2.524518 -0.055557
v 0.083147 0.967107 -0.055557
v 0.092388 -2.524518 -0.038268
v 0.092388 0.967107 -0.038268
v 0.098078 -2.524518 -0.019509
v 0.098078 0.967107 -0.019509
v 0.100000 -2.524518 -0.000000
v 0.100000 0.967107 -0.000000
v 0.098078 -2.524518 0.019509
v 0.098078 0.967107 0.019509
v 0.092388 -2.524518 0.038268
v 0.092388 0.967107 0.038268
v 0.083147 -2.524518 0.055557
v 0.083147 0.967107 0.055557
v 0.070710 -2.524518 0.070711
v 0.070711 0.967107 0.070711
v 0.055557 -2.524518 0.083147
v 0.055557 0.967107 0.083147
v 0.038268 -2.524518 0.092388
v 0.038268 0.967107 0.092388
v 0.019509 -2.524518 0.098079
v 0.019509 0.967107 0.098079
v -0.000000 -2.524518 0.100000
v 0.000000 0.967107 0.100000
v -0.019509 -2.524518 0.098079
v -0.019509 0.967107 0.098079
v -0.038268 -2.524518 0.092388
v -0.038269 0.967107 0.092388
v -0.055557 -2.524518 0.083147
v -0.055557 0.967107 0.083147
v -0.070711 -2.524518 0.070711
v -0.070711 0.967107 0.070711
v -0.083147 -2.524518 0.055557
v -0.083147 0.967107 0.055557
v -0.092388 -2.524518 0.038268
v -0.092388 0.967107 0.038268
v -0.098079 -2.524518 0.019509
v -0.098078 0.967107 0.019509
v -0.100000 -2.524518 -0.000000
v -0.100000 0.967107 -0.000000
v -0.098079 -2.524518 -0.019509
v -0.098078 0.967107 -0.019509
v -0.092388 -2.524518 -0.038268
v -0.092388 0.967107 -0.038268
v -0.083147 -2.524518 -0.055557
v -0.083147 0.967107 -0.055557
v -0.070711 -2.524518 -0.070711
v -0.070711 0.967107 -0.070711
v -0.055557 -2.524518 -0.083147
v -0.055557 0.967107 -0.083147
v -0.038268 -2.524518 -0.092388
v -0.038268 0.967107 -0.092388
v -0.019509 -2.524518 -0.098079
v -0.019509 0.967107 -0.098079
vt 0.844587 0.146234
vt 1.000000 0.275558
vt 0.811624 0.151031
vt 0.781016 0.155972
vt 0.753941 0.160866
vt 0.731439 0.165525
vt 0.731439 0.130281
vt 0.731439 0.275558
vt 0.705783 0.131941
vt 0.676229 0.134479
vt 0.643914 0.137796
vt 0.610080 0.141765
vt 0.576027 0.146234
vt 0.543063 0.151031
vt 0.512455 0.155972
vt 0.485381 0.160866
vt 0.462879 0.165525
vt 0.688000 0.395497
vt 0.913122 0.275558
vt 0.715894 0.399779
vt 0.747322 0.404029
vt 0.781075 0.408083
vt 0.815858 0.411786
vt 0.850332 0.414994
vt 0.883175 0.417586
vt 0.913122 0.419461
vt 0.688000 0.275558
vt 0.688000 0.419461
vt 0.658053 0.277434
vt 0.625211 0.280025
vt 0.590736 0.283234
vt 0.555954 0.286937
vt 0.522200 0.290991
vt 0.490773 0.295241
vt 0.462879 0.299523
vt 1.000000 0.130281
vt 0.974343 0.131941
vt 0.944789 0.134479
vt 0.912475 0.137796
vt 0.878640 0.141765
vt 0.629136 0.000000
vt 0.831721 0.058725
vt 0.665464 0.130281
vt 0.182617 0.998152
vt 0.166808 0.000196
vt 0.182617 0.000000
vt 0.166808 0.998348
vt 0.151916 0.000580
vt 0.151916 0.998732
vt 0.138515 0.001138
vt 0.138515 0.999290
vt 0.127117 0.001848
vt 0.127117 1.000000
vt 0.115720 0.001138
vt 0.115720 0.999290
vt 0.102318 0.000580
vt 0.102318 0.998732
vt 0.087426 0.000196
vt 0.087426 0.998348
vt 0.071618 0.000000
vt 0.071618 0.998152
vt 0.055499 0.000000
vt 0.055499 0.998152
vt 0.039691 0.000196
vt 0.039691 0.998348
vt 0.024799 0.000580
vt 0.024799 0.998732
vt 0.011397 0.001138
vt 0.011398 0.999290
vt 0.000000 0.001848
vt 0.462879 0.999290
vt 0.449477 0.000580
vt 0.462879 0.001138
vt 0.449477 0.998732
vt 0.434586 0.000196
vt 0.434586 0.998348
vt 0.418777 0.000000
vt 0.418777 0.998152
vt 0.402659 0.000000
vt 0.402659 0.998152
vt 0.386850 0.000196
vt 0.386850 0.998348
vt 0.371958 0.000580
vt 0.371958 0.998732
vt 0.358557 0.001138
vt 0.358557 0.999290
vt 0.345154 0.000580
vt 0.345155 0.998732
vt 0.330263 0.000196
vt 0.330263 0.998348
vt 0.314454 0.000000
vt 0.314455 0.998152
vt 0.298336 0.000000
vt 0.298336 0.998152
vt 0.282527 0.000196
vt 0.282528 0.998348
vt 0.267636 0.000580
vt 0.267636 0.998732
vt 0.254234 0.001138
vt 0.254234 1.000000
vt 0.242837 0.001138
vt 0.254234 0.001848
vt 0.242837 0.999290
vt 0.229435 0.000580
vt 0.229435 0.998732
vt 0.214543 0.000196
vt 0.834866 0.078276
vt 0.937415 0.058915
vt 0.992229 0.095137
vt 0.214543 0.998348
vt 0.198735 0.000000
vt 0.198735 0.998152
vt 0.889679 0.001111
vt 0.992229 0.020472
vt 0.937415 0.056694
vt 0.844587 0.146234
vt 1.000000 0.275558
vt 0.811624 0.151031
vt 0.781016 0.155972
vt 0.753941 0.160866
vt 0.731439 0.165525
vt 0.731439 0.130281
vt 0.731439 0.275558
vt 0.705783 0.131941
vt 0.676229 0.134479
vt 0.643914 0.137796
vt 0.610080 0.141765
vt 0.576027 0.146234
vt 0.543063 0.151031
vt 0.512455 0.155972
vt 0.485381 0.160866
vt 0.462879 0.165525
vt 0.688000 0.395497
vt 0.913122 0.275558
vt 0.715894 0.399779
vt 0.747322 0.404029
vt 0.781075 0.408083
vt 0.815858 0.411786
vt 0.850332 0.414994
vt 0.883175 0.417586
vt 0.913122 0.419461
vt 0.688000 0.275558
vt 0.688000 0.419461
vt 0.658053 0.277434
vt 0.625211 0.280025
vt 0.590736 0.283234
vt 0.555954 0.286937
vt 0.522200 0.290991
vt 0.490773 0.295241
vt 0.462879 0.299523
vt 1.000000 0.130281
vt 0.974343 0.131941
vt 0.944789 0.134479
vt 0.912475 0.137796
vt 0.878640 0.141765
vt 0.529738 0.115738
vt 0.462879 0.071556
vt 0.831721 0.058725
vt 0.182617 0.998152
vt 0.166808 0.000196
vt 0.182617 0.000000
vt 0.166808 0.998348
vt 0.151916 0.000580
vt 0.151916 0.998732
vt 0.138515 0.001138
vt 0.138515 0.999290
vt 0.127117 0.001848
vt 0.127117 1.000000
vt 0.115720 0.001138
vt 0.115720 0.999290
vt 0.102318 0.000580
vt 0.102318 0.998732
vt 0.087426 0.000196
vt 0.087426 0.998348
vt 0.071618 0.000000
vt 0.071618 0.998152
vt 0.055499 0.000000
vt 0.055499 0.998152
vt 0.039691 0.000196
vt 0.039691 0.998348
vt 0.024799 0.000580
vt 0.024799 0.998732
vt 0.011397 0.001138
vt 0.011398 0.999290
vt 0.000000 0.001848
vt 0.462879 0.999290
vt 0.449477 0.000580
vt 0.462879 0.001138
vt 0.449477 0.998732
vt 0.434586 0.000196
vt 0.434586 0.998348
vt 0.418777 0.000000
vt 0.418777 0.998152
vt 0.402659 0.000000
vt 0.402659 0.998152
vt 0.386850 0.000196
vt 0.386850 0.998348
vt 0.371958 0.000580
vt 0.371958 0.998732
vt 0.358557 0.001138
vt 0.358557 0.999290
vt 0.345154 0.000580
vt 0.345155 0.998732
vt 0.330263 0.000196
vt 0.330263 0.998348
vt 0.314454 0.000000
vt 0.314455 0.998152
vt 0.298336 0.000000
vt 0.298336 0.998152
vt 0.282527 0.000196
vt 0.282528 0.998348
vt 0.267636 0.000580
vt 0.267636 0.998732
vt 0.254234 0.001138
vt 0.254234 1.000000
vt 0.242837 0.001138
vt 0.254234 0.001848
vt 0.242837 0.999290
vt 0.229435 0.000580
vt 0.229435 0.998732
vt 0.214543 0.000196
vt 0.937415 0.058915
vt 0.992229 0.095137
vt 0.889679 0.114498
vt 0.214543 0.998348
vt 0.198735 0.000000
vt 0.198735 0.998152
vt 0.992229 0.020472
vt 0.937415 0.056694
vt 0.834866 0.037333
vt 0.844587 0.146234
vt 1.000000 0.275558
vt 0.811624 0.151031
vt 0.781016 0.155972
vt 0.753941 0.160866
vt 0.731439 0.165525
vt 0.731439 0.130281
vt 0.731439 0.275558
vt 0.705783 0.131941
vt 0.676229 0.134479
vt 0.643914 0.137796
vt 0.610080 0.141765
vt 0.576027 0.146234
vt 0.543063 0.151031
vt 0.512455 0.155972
vt 0.485381 0.160866
vt 0.462879 0.165525
vt 0.688000 0.395497
vt 0.913122 0.275558
vt 0.715894 0.399779
vt 0.747322 0.404029
vt 0.781075 0.408083
vt 0.815858 0.411786
vt 0.850332 0.414994
vt 0.883175 0.417586
vt 0.913122 0.419461
vt 0.688000 0.275558
vt 0.688000 0.419461
vt 0.658053 0.277434
vt 0.625211 0.280025
vt 0.590736 0.283234
vt 0.555954 0.286937
vt 0.522200 0.290991
vt 0.490773 0.295241
vt 0.462879 0.299523
vt 1.000000 0.130281
vt 0.974343 0.131941
vt 0.944789 0.134479
vt 0.912475 0.137796
vt 0.878640 0.141765
vt 0.529738 0.115738
vt 0.462879 0.071556
vt 0.831721 0.058725
vt 0.182617 0.998152
vt 0.166808 0.000196
vt 0.182617 0.000000
vt 0.151916 0.998732
vt 0.151916 0.000580
vt 0.138515 0.001138
vt 0.138515 0.999290
vt 0.127117 0.001848
vt 0.127117 1.000000
vt 0.115720 0.001138
vt 0.102318 0.998732
vt 0.102318 0.000580
vt 0.087426 0.998348
vt 0.087426 0.000196
vt 0.071618 0.000000
vt 0.071618 0.998152
vt 0.055499 0.000000
vt 0.055499 0.998152
vt 0.039691 0.000196
vt 0.039691 0.998348
vt 0.024799 0.000580
vt 0.024799 0.998732
vt 0.011397 0.001138
vt 0.011398 0.999290
vt 0.000000 0.001848
vt 0.462879 0.999290
vt 0.449477 0.000580
vt 0.462879 0.001138
vt 0.449477 0.998732
vt 0.434586 0.000196
vt 0.434586 0.998348
vt 0.418777 0.000000
vt 0.418777 0.998152
vt 0.402659 0.000000
vt 0.402659 0.998152
vt 0.386850 0.000196
vt 0.386850 0.998348
vt 0.371958 0.000580
vt 0.371958 0.998732
vt 0.358557 0.001138
vt 0.358557 0.999290
vt 0.345154 0.000580
vt 0.345155 0.998732
vt 0.330263 0.000196
vt 0.330263 0.998348
vt 0.314454 0.000000
vt 0.314455 0.998152
vt 0.298336 0.000000
vt 0.298336 0.998152
vt 0.282527 0.000196
vt 0.267636 0.998732
vt 0.267636 0.000580
vt 0.254234 0.999290
vt 0.254234 0.001138
vt 0.254234 1.000000
vt 0.242837 0.001138
vt 0.254234 0.001848
vt 0.242837 0.999290
vt 0.229435 0.000580
vt 0.229435 0.998732
vt 0.214543 0.000196
vt 0.937415 0.058915
vt 0.992229 0.095137
vt 0.889679 0.114498
vt 0.214543 0.998348
vt 0.198735 0.000000
vt 0.198735 0.998152
vt 0.992229 0.020472
vt 0.937415 0.056694
vt 0.834866 0.037333
vt 0.462879 0.071556
vt 0.462879 0.058725
vt 0.469966 0.046140
vt 0.483868 0.034285
vt 0.504051 0.023616
vt 0.529738 0.014543
vt 0.559944 0.007414
vt 0.593506 0.002503
vt 0.665464 0.000000
vt 0.701094 0.002503
vt 0.734656 0.007414
vt 0.764862 0.014543
vt 0.790549 0.023616
vt 0.810732 0.034285
vt 0.824634 0.046140
vt 0.831721 0.071556
vt 0.824634 0.084141
vt 0.810732 0.095996
vt 0.790549 0.106665
vt 0.764862 0.115738
vt 0.734656 0.122867
vt 0.701093 0.127777
vt 0.629136 0.130281
vt 0.593506 0.127777
vt 0.559944 0.122867
vt 0.529738 0.115738
vt 0.504051 0.106665
vt 0.483868 0.095996
vt 0.469966 0.084141
vt 0.000000 1.000000
vt 0.254234 0.999290
vt 0.889679 0.114498
vt 0.874788 0.112320
vt 0.841034 0.100397
vt 0.861386 0.109157
vt 0.849989 0.105131
vt 0.834866 0.095137
vt 0.831721 0.089553
vt 0.831721 0.083860
vt 0.841034 0.073016
vt 0.849989 0.068283
vt 0.861386 0.064257
vt 0.874788 0.061094
vt 0.889679 0.058915
vt 0.905488 0.057804
vt 0.921606 0.057804
vt 0.952306 0.061094
vt 0.986061 0.073016
vt 0.965708 0.064257
vt 0.977106 0.068283
vt 0.992229 0.078276
vt 0.995373 0.083860
vt 0.995373 0.089553
vt 0.986061 0.100397
vt 0.977106 0.105131
vt 0.965708 0.109157
vt 0.952306 0.112320
vt 0.937415 0.114498
vt 0.921606 0.115609
vt 0.905488 0.115609
vt 0.834866 0.037333
vt 0.831721 0.031749
vt 0.831721 0.026056
vt 0.834866 0.020472
vt 0.841034 0.015212
vt 0.849989 0.010478
vt 0.861386 0.006452
vt 0.874788 0.003289
vt 0.905488 0.000000
vt 0.921606 0.000000
vt 0.937415 0.001111
vt 0.952306 0.003289
vt 0.965708 0.006452
vt 0.977106 0.010478
vt 0.986061 0.015212
vt 0.995373 0.026056
vt 0.995373 0.031749
vt 0.992229 0.037333
vt 0.986061 0.042593
vt 0.977106 0.047326
vt 0.965708 0.051352
vt 0.952306 0.054515
vt 0.921606 0.057804
vt 0.905488 0.057804
vt 0.889679 0.056694
vt 0.874788 0.054515
vt 0.861386 0.051352
vt 0.849989 0.047326
vt 0.841034 0.042593
vt 0.462879 0.058725
vt 0.469966 0.046140
vt 0.483868 0.034285
vt 0.504051 0.023616
vt 0.529738 0.014543
vt 0.559944 0.007414
vt 0.593506 0.002503
vt 0.629136 0.000000
vt 0.665464 0.000000
vt 0.764862 0.014543
vt 0.701094 0.002503
vt 0.734656 0.007414
vt 0.790549 0.023616
vt 0.810732 0.034285
vt 0.824634 0.046140
vt 0.831721 0.071556
vt 0.790549 0.106665
vt 0.824634 0.084141
vt 0.810732 0.095996
vt 0.764862 0.115738
vt 0.734656 0.122867
vt 0.701093 0.127777
vt 0.665464 0.130281
vt 0.629136 0.130281
vt 0.593506 0.127777
vt 0.559944 0.122867
vt 0.504051 0.106665
vt 0.483868 0.095996
vt 0.469966 0.084141
vt 0.000000 1.000000
vt 0.254234 0.999290
vt 0.874788 0.112320
vt 0.841034 0.100397
vt 0.861386 0.109157
vt 0.849989 0.105131
vt 0.834866 0.095137
vt 0.831721 0.089553
vt 0.831721 0.083860
vt 0.834866 0.078276
vt 0.841034 0.073016
vt 0.849989 0.068283
vt 0.861386 0.064257
vt 0.874788 0.061094
vt 0.889679 0.058915
vt 0.905488 0.057804
vt 0.921606 0.057804
vt 0.952306 0.061094
vt 0.965708 0.064257
vt 0.977106 0.068283
vt 0.986061 0.073016
vt 0.992229 0.078276
vt 0.995373 0.083860
vt 0.995373 0.089553
vt 0.986061 0.100397
vt 0.952306 0.112320
vt 0.977106 0.105131
vt 0.965708 0.109157
vt 0.937415 0.114498
vt 0.921606 0.115609
vt 0.905488 0.115609
vt 0.831721 0.031749
vt 0.841034 0.015212
vt 0.831721 0.026056
vt 0.834866 0.020472
vt 0.849989 0.010478
vt 0.861386 0.006452
vt 0.874788 0.003289
vt 0.889679 0.001111
vt 0.905488 0.000000
vt 0.921606 0.000000
vt 0.937415 0.001111
vt 0.952306 0.003289
vt 0.965708 0.006452
vt 0.977106 0.010478
vt 0.986061 0.015212
vt 0.995373 0.026056
vt 0.995373 0.031749
vt 0.992229 0.037333
vt 0.986061 0.042593
vt 0.977106 0.047326
vt 0.965708 0.051352
vt 0.952306 0.054515
vt 0.921606 0.057804
vt 0.905488 0.057804
vt 0.889679 0.056694
vt 0.874788 0.054515
vt 0.861386 0.051352
vt 0.849989 0.047326
vt 0.841034 0.042593
vt 0.462879 0.058725
vt 0.469966 0.046140
vt 0.483868 0.034285
vt 0.504051 0.023616
vt 0.529738 0.014543
vt 0.559944 0.007414
vt 0.593506 0.002503
vt 0.629136 0.000000
vt 0.665464 0.000000
vt 0.764862 0.014543
vt 0.701094 0.002503
vt 0.734656 0.007414
vt 0.790549 0.023616
vt 0.810732 0.034285
vt 0.824634 0.046140
vt 0.831721 0.071556
vt 0.790549 0.106665
vt 0.824634 0.084141
vt 0.810732 0.095996
vt 0.764862 0.115738
vt 0.734656 0.122867
vt 0.701093 0.127777
vt 0.665464 0.130281
vt 0.629136 0.130281
vt 0.593506 0.127777
vt 0.559944 0.122867
vt 0.504051 0.106665
vt 0.483868 0.095996
vt 0.469966 0.084141
vt 0.166808 0.998348
vt 0.115720 0.999290
vt 0.000000 1.000000
vt 0.282528 0.998348
vt 0.874788 0.112320
vt 0.841034 0.100397
vt 0.861386 0.109157
vt 0.849989 0.105131
vt 0.834866 0.095137
vt 0.831721 0.089553
vt 0.831721 0.083860
vt 0.834866 0.078276
vt 0.841034 0.073016
vt 0.849989 0.068283
vt 0.861386 0.064257
vt 0.874788 0.061094
vt 0.889679 0.058915
vt 0.905488 0.057804
vt 0.921606 0.057804
vt 0.952306 0.061094
vt 0.965708 0.064257
vt 0.977106 0.068283
vt 0.986061 0.073016
vt 0.992229 0.078276
vt 0.995373 0.083860
vt 0.995373 0.089553
vt 0.986061 0.100397
vt 0.952306 0.112320
vt 0.977106 0.105131
vt 0.965708 0.109157
vt 0.937415 0.114498
vt 0.921606 0.115609
vt 0.905488 0.115609
vt 0.831721 0.031749
vt 0.841034 0.015212
vt 0.831721 0.026056
vt 0.834866 0.020472
vt 0.849989 0.010478
vt 0.861386 0.006452
vt 0.874788 0.003289
vt 0.889679 0.001111
vt 0.905488 0.000000
vt 0.921606 0.000000
vt 0.937415 0.001111
vt 0.952306 0.003289
vt 0.965708 0.006452
vt 0.977106 0.010478
vt 0.986061 0.015212
vt 0.995373 0.026056
vt 0.995373 0.031749
vt 0.992229 0.037333
vt 0.986061 0.042593
vt 0.977106 0.047326
vt 0.965708 0.051352
vt 0.952306 0.054515
vt 0.921606 0.057804
vt 0.905488 0.057804
vt 0.889679 0.056694
vt 0.874788 0.054515
vt 0.861386 0.051352
vt 0.849989 0.047326
vt 0.841034 0.042593
s off
f 1/1 24/2 2/3
f 2/3 24/2 3/4
f 3/4 24/2 4/5
f 4/5 24/2 5/6
f 5/7 24/8 6/9
f 6/9 24/8 7/10
f 7/10 24/8 8/11
f 8/11 24/8 9/12
f 9/12 24/8 10/13
f 10/13 24/8 11/14
f 11/14 24/8 12/15
f 12/15 24/8 13/16
f 13/16 24/8 14/17
f 14/18 24/19 15/20
f 15/20 24/19 16/21
f 16/21 24/19 17/22
f 17/22 24/19 18/23
f 18/23 24/19 19/24
f 19/24 24/19 20/25
f 20/25 24/19 21/26
f 21/27 24/28 22/29
f 22/29 24/28 23/30
f 23/30 24/28 25/31
f 25/31 24/28 26/32
f 26/32 24/28 27/33
f 27/33 24/28 28/34
f 28/34 24/28 29/35
f 29/36 24/2 30/37
f 30/37 24/2 31/38
f 31/38 24/2 32/39
f 32/39 24/2 33/40
f 33/40 24/2 1/1
f 8/41 16/42 25/43
f 35/44 36/45 34/46
f 37/47 38/48 36/45
f 39/49 40/50 38/48
f 41/51 42/52 40/50
f 43/53 44/54 42/52
f 45/55 46/56 44/54
f 47/57 48/58 46/56
f 49/59 50/60 48/58
f 51/61 52/62 50/60
f 53/63 54/64 52/62
f 55/65 56/66 54/64
f 57/67 58/68 56/66
f 59/69 60/70 58/68
f 61/71 62/72 60/73
f 63/74 64/75 62/72
f 65/76 66/77 64/75
f 67/78 68/79 66/77
f 69/80 70/81 68/79
f 71/82 72/83 70/81
f 73/84 74/85 72/83
f 75/86 76/87 74/85
f 77/88 78/89 76/87
f 79/90 80/91 78/89
f 81/92 82/93 80/91
f 83/94 84/95 82/93
f 85/96 86/97 84/95
f 87/98 88/99 86/97
f 89/100 90/101 88/102
f 91/103 92/104 90/101
f 93/105 94/106 92/104
f 87/107 71/108 55/109
f 95/110 96/111 94/106
f 97/112 34/46 96/111
f 48/113 64/114 80/115
f 98/116 121/117 99/118
f 99/118 121/117 100/119
f 100/119 121/117 101/120
f 101/120 121/117 102/121
f 102/122 121/123 103/124
f 103/124 121/123 104/125
f 104/125 121/123 105/126
f 105/126 121/123 106/127
f 106/127 121/123 107/128
f 107/128 121/123 108/129
f 108/129 121/123 109/130
f 109/130 121/123 110/131
f 110/131 121/123 111/132
f 111/133 121/134 112/135
f 112/135 121/134 113/136
f 113/136 121/134 114/137
f 114/137 121/134 115/138
f 115/138 121/134 116/139
f 116/139 121/134 117/140
f 117/140 121/134 118/141
f 118/142 121/143 119/144
f 119/144 121/143 120/145
f 120/145 121/143 122/146
f 122/146 121/143 123/147
f 123/147 121/143 124/148
f 124/148 121/143 125/149
f 125/149 121/143 126/150
f 126/151 121/117 127/152
f 127/152 121/117 128/153
f 128/153 121/117 129/154
f 129/154 121/117 130/155
f 130/155 121/117 98/116
f 126/156 130/157 113/158
f 132/159 133/160 131/161
f 134/162 135/163 133/160
f 136/164 137/165 135/163
f 138/166 139/167 137/165
f 140/168 141/169 139/167
f 142/170 143/171 141/169
f 144/172 145/173 143/171
f 146/174 147/175 145/173
f 148/176 149/177 147/175
f 150/178 151/179 149/177
f 152/180 153/181 151/179
f 154/182 155/183 153/181
f 156/184 157/185 155/183
f 158/186 159/187 157/188
f 160/189 161/190 159/187
f 162/191 163/192 161/190
f 164/193 165/194 163/192
f 166/195 167/196 165/194
f 168/197 169/198 167/196
f 170/199 171/200 169/198
f 172/201 173/202 171/200
f 174/203 175/204 173/202
f 176/205 177/206 175/204
f 178/207 179/208 177/206
f 180/209 181/210 179/208
f 182/211 183/212 181/210
f 184/213 185/214 183/212
f 186/215 187/216 185/217
f 188/218 189/219 187/216
f 190/220 191/221 189/219
f 168/222 152/223 136/224
f 192/225 193/226 191/221
f 194/227 131/161 193/226
f 161/228 177/229 193/230
f 195/231 218/232 196/233
f 196/233 218/232 197/234
f 197/234 218/232 198/235
f 198/235 218/232 199/236
f 199/237 218/238 200/239
f 200/239 218/238 201/240
f 201/240 218/238 202/241
f 202/241 218/238 203/242
f 203/242 218/238 204/243
f 204/243 218/238 205/244
f 205/244 218/238 206/245
f 206/245 218/238 207/246
f 207/246 218/238 208/247
f 208/248 218/249 209/250
f 209/250 218/249 210/251
f 210/251 218/249 211/252
f 211/252 218/249 212/253
f 212/253 218/249 213/254
f 213/254 218/249 214/255
f 214/255 218/249 215/256
f 215/257 218/258 216/259
f 216/259 218/258 217/260
f 217/260 218/258 219/261
f 219/261 218/258 220/262
f 220/262 218/258 221/263
f 221/263 218/258 222/264
f 222/264 218/258 223/265
f 223/266 218/232 224/267
f 224/267 218/232 225/268
f 225/268 218/232 226/269
f 226/269 218/232 227/270
f 227/270 218/232 195/231
f 223/271 227/272 210/273
f 229/274 230/275 228/276
f 230/275 233/277 232/278
f 233/277 234/279 232/278
f 235/280 236/281 234/279
f 237/282 238/283 236/281
f 238/283 241/284 240/285
f 240/285 243/286 242/287
f 243/286 244/288 242/287
f 245/289 246/290 244/288
f 247/291 248/292 246/290
f 249/293 250/294 248/292
f 251/295 252/296 250/294
f 253/297 254/298 252/296
f 255/299 256/300 254/301
f 257/302 258/303 256/300
f 259/304 260/305 258/303
f 261/306 262/307 260/305
f 263/308 264/309 262/307
f 265/310 266/311 264/309
f 267/312 268/313 266/311
f 269/314 270/315 268/313
f 271/316 272/317 270/315
f 273/318 274/319 272/317
f 275/320 276/321 274/319
f 277/322 278/323 276/321
f 278/323 281/324 280/325
f 280/325 283/326 282/327
f 283/328 284/329 282/330
f 285/331 286/332 284/329
f 287/333 288/334 286/332
f 265/335 249/336 233/337
f 289/338 290/339 288/334
f 291/340 228/276 290/339
f 258/341 274/342 290/343
f 33/344 1/345 2/346
f 2/346 3/347 4/348
f 4/348 5/349 6/350
f 6/350 7/351 4/348
f 7/351 8/41 4/348
f 8/41 9/352 10/353
f 10/353 11/354 8/41
f 11/354 12/355 8/41
f 12/355 13/356 16/42
f 13/356 14/357 16/42
f 14/357 15/358 16/42
f 16/42 17/359 18/360
f 18/360 19/361 20/362
f 20/362 21/363 22/364
f 22/364 23/365 25/43
f 25/43 26/366 27/367
f 27/367 28/368 29/369
f 29/369 30/370 33/344
f 30/370 31/371 33/344
f 31/371 32/372 33/344
f 33/344 2/346 4/348
f 16/42 18/360 25/43
f 18/360 20/362 25/43
f 20/362 22/364 25/43
f 25/43 27/367 33/344
f 27/367 29/369 33/344
f 33/344 4/348 8/41
f 8/41 12/355 16/42
f 33/344 8/41 25/43
f 35/44 37/47 36/45
f 37/47 39/49 38/48
f 39/49 41/51 40/50
f 41/51 43/53 42/52
f 43/53 45/55 44/54
f 45/55 47/57 46/56
f 47/57 49/59 48/58
f 49/59 51/61 50/60
f 51/61 53/63 52/62
f 53/63 55/65 54/64
f 55/65 57/67 56/66
f 57/67 59/69 58/68
f 59/69 61/373 60/70
f 61/71 63/74 62/72
f 63/74 65/76 64/75
f 65/76 67/78 66/77
f 67/78 69/80 68/79
f 69/80 71/82 70/81
f 71/82 73/84 72/83
f 73/84 75/86 74/85
f 75/86 77/88 76/87
f 77/88 79/90 78/89
f 79/90 81/92 80/91
f 81/92 83/94 82/93
f 83/94 85/96 84/95
f 85/96 87/98 86/97
f 87/98 89/374 88/99
f 89/100 91/103 90/101
f 91/103 93/105 92/104
f 93/105 95/110 94/106
f 39/375 37/376 95/377
f 37/376 35/378 95/377
f 35/378 97/379 95/377
f 95/377 93/380 91/381
f 91/381 89/382 87/107
f 87/107 85/383 83/384
f 83/384 81/385 87/107
f 81/385 79/386 87/107
f 79/386 77/387 71/108
f 77/387 75/388 71/108
f 75/388 73/389 71/108
f 71/108 69/390 63/391
f 69/390 67/392 63/391
f 67/392 65/393 63/391
f 63/391 61/394 59/395
f 59/395 57/396 55/109
f 55/109 53/397 51/398
f 51/398 49/399 55/109
f 49/399 47/400 55/109
f 47/400 45/401 43/402
f 43/402 41/403 39/375
f 95/377 91/381 87/107
f 63/391 59/395 55/109
f 47/400 43/402 55/109
f 43/402 39/375 55/109
f 39/375 95/377 87/107
f 87/107 79/386 71/108
f 71/108 63/391 55/109
f 39/375 87/107 55/109
f 95/110 97/112 96/111
f 97/112 35/44 34/46
f 96/404 34/405 36/406
f 36/406 38/407 40/408
f 40/408 42/409 48/113
f 42/409 44/410 48/113
f 44/410 46/411 48/113
f 48/113 50/412 52/413
f 52/413 54/414 48/113
f 54/414 56/415 48/113
f 56/415 58/416 60/417
f 60/417 62/418 64/114
f 64/114 66/419 68/420
f 68/420 70/421 64/114
f 70/421 72/422 64/114
f 72/422 74/423 76/424
f 76/424 78/425 80/115
f 80/115 82/426 84/427
f 84/427 86/428 80/115
f 86/428 88/429 80/115
f 88/429 90/430 92/431
f 92/431 94/432 88/429
f 94/432 96/404 88/429
f 96/404 36/406 40/408
f 56/415 60/417 48/113
f 60/417 64/114 48/113
f 72/422 76/424 64/114
f 76/424 80/115 64/114
f 96/404 40/408 48/113
f 80/115 88/429 96/404
f 96/404 48/113 80/115
f 130/157 98/433 99/434
f 99/434 100/435 130/157
f 100/435 101/436 130/157
f 101/436 102/437 103/438
f 103/438 104/439 105/440
f 105/440 106/441 109/442
f 106/441 107/443 109/442
f 107/443 108/444 109/442
f 109/442 110/445 111/446
f 111/446 112/447 109/442
f 112/447 113/158 109/442
f 113/158 114/448 117/449
f 114/448 115/450 117/449
f 115/450 116/451 117/449
f 117/449 118/452 119/453
f 119/453 120/454 117/449
f 120/454 122/455 117/449
f 122/455 123/456 126/156
f 123/456 124/457 126/156
f 124/457 125/458 126/156
f 126/156 127/459 128/460
f 128/460 129/461 130/157
f 101/436 103/438 130/157
f 103/438 105/440 130/157
f 126/156 128/460 130/157
f 105/440 109/442 130/157
f 109/442 113/158 130/157
f 113/158 117/449 122/455
f 122/455 126/156 113/158
f 132/159 134/162 133/160
f 134/162 136/164 135/163
f 136/164 138/166 137/165
f 138/166 140/168 139/167
f 140/168 142/170 141/169
f 142/170 144/172 143/171
f 144/172 146/174 145/173
f 146/174 148/176 147/175
f 148/176 150/178 149/177
f 150/178 152/180 151/179
f 152/180 154/182 153/181
f 154/182 156/184 155/183
f 156/184 158/462 157/185
f 158/186 160/189 159/187
f 160/189 162/191 161/190
f 162/191 164/193 163/192
f 164/193 166/195 165/194
f 166/195 168/197 167/196
f 168/197 170/199 169/198
f 170/199 172/201 171/200
f 172/201 174/203 173/202
f 174/203 176/205 175/204
f 176/205 178/207 177/206
f 178/207 180/209 179/208
f 180/209 182/211 181/210
f 182/211 184/213 183/212
f 184/213 186/463 185/214
f 186/215 188/218 187/216
f 188/218 190/220 189/219
f 190/220 192/225 191/221
f 136/224 134/464 192/465
f 134/464 132/466 192/465
f 132/466 194/467 192/465
f 192/465 190/468 188/469
f 188/469 186/470 192/465
f 186/470 184/471 192/465
f 184/471 182/472 180/473
f 180/473 178/474 184/471
f 178/474 176/475 184/471
f 176/475 174/476 168/222
f 174/476 172/477 168/222
f 172/477 170/478 168/222
f 168/222 166/479 164/480
f 164/480 162/481 160/482
f 160/482 158/483 156/484
f 156/484 154/485 160/482
f 154/485 152/223 160/482
f 152/223 150/486 144/487
f 150/486 148/488 144/487
f 148/488 146/489 144/487
f 144/487 142/490 136/224
f 142/490 140/491 136/224
f 140/491 138/492 136/224
f 168/222 164/480 152/223
f 164/480 160/482 152/223
f 136/224 192/465 168/222
f 192/465 184/471 168/222
f 184/471 176/475 168/222
f 152/223 144/487 136/224
f 192/225 194/227 193/226
f 194/227 132/159 131/161
f 193/230 131/493 137/494
f 131/493 133/495 137/494
f 133/495 135/496 137/494
f 137/494 139/497 141/498
f 141/498 143/499 137/494
f 143/499 145/500 137/494
f 145/500 147/501 149/502
f 149/502 151/503 145/500
f 151/503 153/504 145/500
f 153/504 155/505 157/506
f 157/506 159/507 161/228
f 161/228 163/508 165/509
f 165/509 167/510 161/228
f 167/510 169/511 161/228
f 169/511 171/512 177/229
f 171/512 173/513 177/229
f 173/513 175/514 177/229
f 177/229 179/515 181/516
f 181/516 183/517 177/229
f 183/517 185/518 177/229
f 185/518 187/519 189/520
f 189/520 191/521 193/230
f 153/504 157/506 145/500
f 157/506 161/228 145/500
f 185/518 189/520 177/229
f 189/520 193/230 177/229
f 193/230 137/494 161/228
f 137/494 145/500 161/228
f 161/228 169/511 177/229
f 227/272 195/522 196/523
f 196/523 197/524 227/272
f 197/524 198/525 227/272
f 198/525 199/526 200/527
f 200/527 201/528 202/529
f 202/529 203/530 206/531
f 203/530 204/532 206/531
f 204/532 205/533 206/531
f 206/531 207/534 208/535
f 208/535 209/536 206/531
f 209/536 210/273 206/531
f 210/273 211/537 214/538
f 211/537 212/539 214/538
f 212/539 213/540 214/538
f 214/538 215/541 216/542
f 216/542 217/543 214/538
f 217/543 219/544 214/538
f 219/544 220/545 223/271
f 220/545 221/546 223/271
f 221/546 222/547 223/271
f 223/271 224/548 225/549
f 225/549 226/550 227/272
f 198/525 200/527 202/529
f 223/271 225/549 227/272
f 227/272 198/525 210/273
f 198/525 202/529 210/273
f 202/529 206/531 210/273
f 210/273 214/538 219/544
f 219/544 223/271 210/273
f 229/274 231/551 230/275
f 230/275 231/551 233/277
f 233/277 235/280 234/279
f 235/280 237/282 236/281
f 237/282 239/552 238/283
f 238/283 239/552 241/284
f 240/285 241/284 243/286
f 243/286 245/289 244/288
f 245/289 247/291 246/290
f 247/291 249/293 248/292
f 249/293 251/295 250/294
f 251/295 253/297 252/296
f 253/297 255/553 254/298
f 255/299 257/302 256/300
f 257/302 259/304 258/303
f 259/304 261/306 260/305
f 261/306 263/308 262/307
f 263/308 265/310 264/309
f 265/310 267/312 266/311
f 267/312 269/314 268/313
f 269/314 271/316 270/315
f 271/316 273/318 272/317
f 273/318 275/320 274/319
f 275/320 277/322 276/321
f 277/322 279/554 278/323
f 278/323 279/554 281/324
f 280/325 281/324 283/326
f 283/328 285/331 284/329
f 285/331 287/333 286/332
f 287/333 289/338 288/334
f 233/337 231/555 289/556
f 231/555 229/557 289/556
f 229/557 291/558 289/556
f 289/556 287/559 285/560
f 285/560 283/561 289/556
f 283/561 281/562 289/556
f 281/562 279/563 277/564
f 277/564 275/565 281/562
f 275/565 273/566 281/562
f 273/566 271/567 265/335
f 271/567 269/568 265/335
f 269/568 267/569 265/335
f 265/335 263/570 261/571
f 261/571 259/572 257/573
f 257/573 255/574 253/575
f 253/575 251/576 257/573
f 251/576 249/336 257/573
f 249/336 247/577 241/578
f 247/577 245/579 241/578
f 245/579 243/580 241/578
f 241/578 239/581 233/337
f 239/581 237/582 233/337
f 237/582 235/583 233/337
f 265/335 261/571 249/336
f 261/571 257/573 249/336
f 233/337 289/556 265/335
f 289/556 281/562 265/335
f 281/562 273/566 265/335
f 249/336 241/578 233/337
f 289/338 291/340 290/339
f 291/340 229/274 228/276
f 290/343 228/584 234/585
f 228/584 230/586 234/585
f 230/586 232/587 234/585
f 234/585 236/588 238/589
f 238/589 240/590 234/585
f 240/590 242/591 234/585
f 242/591 244/592 246/593
f 246/593 248/594 242/591
f 248/594 250/595 242/591
f 250/595 252/596 254/597
f 254/597 256/598 258/341
f 258/341 260/599 262/600
f 262/600 264/601 258/341
f 264/601 266/602 258/341
f 266/602 268/603 274/342
f 268/603 270/604 274/342
f 270/604 272/605 274/342
f 274/342 276/606 278/607
f 278/607 280/608 274/342
f 280/608 282/609 274/342
f 282/609 284/610 286/611
f 286/611 288/612 290/343
f 250/595 254/597 242/591
f 254/597 258/341 242/591
f 282/609 286/611 274/342
f 286/611 290/343 274/342
f 290/343 234/585 258/341
f 234/585 242/591 258/341
f 258/341 266/602 274/342
